Q8_Counters/q8_ripple_binary.vcd
$date
	Sat Oct  5 01:27:58 2024
$end
$version
	Icarus Verilog
$end
$timescale
	1ns
$end
$scope module ripple_binary_tb $end
$var wire 4 ! q [3:0] $end
$var reg 1 " clk $end
$var reg 4 # count [3:0] $end
$var reg 1 $ reset $end
$scope module uut $end
$var wire 1 " clk $end
$var wire 4 % count [3:0] $end
$var wire 1 $ reset $end
$var wire 4 & qbar [3:0] $end
$var wire 4 ' q [3:0] $end
$scope module tff0 $end
$var wire 1 ( T $end
$var wire 1 " clk $end
$var wire 1 $ reset $end
$var reg 1 ) q $end
$var reg 1 * qbar $end
$upscope $end
$scope module tff1 $end
$var wire 1 + T $end
$var wire 1 , clk $end
$var wire 1 $ reset $end
$var reg 1 - q $end
$var reg 1 . qbar $end
$upscope $end
$scope module tff2 $end
$var wire 1 / T $end
$var wire 1 0 clk $end
$var wire 1 $ reset $end
$var reg 1 1 q $end
$var reg 1 2 qbar $end
$upscope $end
$scope module tff3 $end
$var wire 1 3 T $end
$var wire 1 4 clk $end
$var wire 1 $ reset $end
$var reg 1 5 q $end
$var reg 1 6 qbar $end
$upscope $end
$upscope $end
$scope begin $ivl_for_loop0 $end
$var integer 32 7 i [31:0] $end
$upscope $end
$upscope $end
$enddefinitions $end
#0
$dumpvars
bx 7
16
05
14
13
12
01
10
1/
1.
0-
1,
1+
1*
0)
1(
b0 '
b1111 &
bx %
1$
bx #
0"
b0 !
$end
#5
1"
#10
0"
b0 #
b0 %
b0 7
0$
#15
0,
b1110 &
0*
b1 !
b1 '
1)
1"
#20
0"
b1 #
b1 %
b1 7
#25
00
0.
1-
1,
b1101 &
1*
b10 !
b10 '
0)
1"
#30
0"
b10 #
b10 %
b10 7
#35
0,
b1100 &
0*
b11 !
b11 '
1)
1"
#40
0"
b11 #
b11 %
b11 7
#45
04
02
11
10
1.
0-
1,
b1011 &
1*
b100 !
b100 '
0)
1"
#50
0"
b100 #
b100 %
b100 7
#55
0,
b1010 &
0*
b101 !
b101 '
1)
1"
#60
0"
b101 #
b101 %
b101 7
#65
00
0.
1-
1,
b1001 &
1*
b110 !
b110 '
0)
1"
#70
0"
b110 #
b110 %
b110 7
#75
0,
b1000 &
0*
b111 !
b111 '
1)
1"
#80
0"
b111 #
b111 %
b111 7
#85
06
15
14
12
01
10
1.
0-
1,
b111 &
1*
b1000 !
b1000 '
0)
1"
#90
0"
b1000 #
b1000 %
b1000 7
#95
0,
b110 &
0*
b1001 !
b1001 '
1)
1"
#100
0"
b1001 #
b1001 %
b1001 7
#105
00
0.
1-
1,
b101 &
1*
b1010 !
b1010 '
0)
1"
#110
0"
b1010 #
b1010 %
b1010 7
#115
0,
b100 &
0*
b1011 !
b1011 '
1)
1"
#120
0"
b1011 #
b1011 %
b1011 7
#125
04
02
11
10
1.
0-
1,
b11 &
1*
b1100 !
b1100 '
0)
1"
#130
0"
b1100 #
b1100 %
b1100 7
#135
0,
b10 &
0*
b1101 !
b1101 '
1)
1"
#140
0"
b1101 #
b1101 %
b1101 7
#145
00
0.
1-
1,
b1 &
1*
b1110 !
b1110 '
0)
1"
#150
0"
b1110 #
b1110 %
b1110 7
#155
0,
b0 &
0*
b1111 !
b1111 '
1)
1"
#160
0"
b1111 #
b1111 %
b1111 7
#165
16
05
14
12
01
10
1.
0-
1,
b1111 &
1*
b0 !
b0 '
0)
1"
#170
0"
b10000 7
