Q8_Counters/q8_updown_counter.vcd
$date
	Sat Oct  5 02:13:39 2024
$end
$version
	Icarus Verilog
$end
$timescale
	1ns
$end
$scope module updown_counter_tb $end
$var wire 4 ! A [3:0] $end
$var reg 1 " clk $end
$var reg 4 # count [3:0] $end
$var reg 1 $ down $end
$var reg 1 % reset $end
$var reg 1 & up $end
$scope module uut $end
$var wire 1 " clk $end
$var wire 4 ' count [3:0] $end
$var wire 1 $ down $end
$var wire 1 ( in1 $end
$var wire 1 ) in2 $end
$var wire 1 * in3 $end
$var wire 1 + in4 $end
$var wire 1 , int1 $end
$var wire 1 - int2 $end
$var wire 1 . int3 $end
$var wire 1 / int4 $end
$var wire 1 0 int5 $end
$var wire 1 1 int6 $end
$var wire 1 2 int7 $end
$var wire 1 3 not_up $end
$var wire 1 % reset $end
$var wire 1 & up $end
$var wire 4 4 Abar [3:0] $end
$var wire 4 5 A [3:0] $end
$scope module tff0 $end
$var wire 1 ( T $end
$var wire 1 " clk $end
$var wire 1 % reset $end
$var reg 1 6 q $end
$var reg 1 7 qbar $end
$upscope $end
$scope module tff1 $end
$var wire 1 ) T $end
$var wire 1 " clk $end
$var wire 1 % reset $end
$var reg 1 8 q $end
$var reg 1 9 qbar $end
$upscope $end
$scope module tff2 $end
$var wire 1 * T $end
$var wire 1 " clk $end
$var wire 1 % reset $end
$var reg 1 : q $end
$var reg 1 ; qbar $end
$upscope $end
$scope module tff3 $end
$var wire 1 + T $end
$var wire 1 " clk $end
$var wire 1 % reset $end
$var reg 1 < q $end
$var reg 1 = qbar $end
$upscope $end
$upscope $end
$scope begin $ivl_for_loop0 $end
$var integer 32 > i [31:0] $end
$upscope $end
$scope begin $ivl_for_loop1 $end
$var integer 32 ? i [31:0] $end
$upscope $end
$upscope $end
$enddefinitions $end
#0
$dumpvars
bx ?
bx >
1=
0<
1;
0:
19
08
17
06
b0 5
b1111 4
x3
02
x1
00
x/
0.
x-
x,
x+
x*
x)
x(
bx '
x&
1%
x$
bx #
0"
b0 !
$end
#5
1"
#10
0+
01
0*
0/
0)
0-
0,
03
1(
0"
b0 #
b0 '
0$
1&
b0 >
0%
#15
1)
1.
b1110 4
07
b1 !
b1 5
16
1"
#20
0"
b1 #
b1 '
b1 >
#25
0)
0.
09
18
b1101 4
17
b10 !
b10 5
06
1"
#30
0"
b10 #
b10 '
b10 >
#35
1*
10
1)
1.
b1100 4
07
b11 !
b11 5
16
1"
#40
0"
b11 #
b11 '
b11 >
#45
0*
0)
00
0.
0;
1:
19
08
b1011 4
17
b100 !
b100 5
06
1"
#50
0"
b100 #
b100 '
b100 >
#55
1)
1.
b1010 4
07
b101 !
b101 5
16
1"
#60
0"
b101 #
b101 '
b101 >
#65
0)
0.
09
18
b1001 4
17
b110 !
b110 5
06
1"
#70
0"
b110 #
b110 '
b110 >
#75
1+
12
1*
10
1)
1.
b1000 4
07
b111 !
b111 5
16
1"
#80
0"
b111 #
b111 '
b111 >
#85
0+
0*
0)
02
00
0.
0=
1<
1;
0:
19
08
b111 4
17
b1000 !
b1000 5
06
1"
#90
0"
b1000 #
b1000 '
b1000 >
#95
1)
1.
b110 4
07
b1001 !
b1001 5
16
1"
#100
0"
b1001 #
b1001 '
b1001 >
#105
0)
0.
09
18
b101 4
17
b1010 !
b1010 5
06
1"
#110
0"
b1010 #
b1010 '
b1010 >
#115
1*
10
1)
1.
b100 4
07
b1011 !
b1011 5
16
1"
#120
0"
b1011 #
b1011 '
b1011 >
#125
0*
0)
00
0.
0;
1:
19
08
b11 4
17
b1100 !
b1100 5
06
1"
#130
0"
b1100 #
b1100 '
b1100 >
#135
1)
1.
b10 4
07
b1101 !
b1101 5
16
1"
#140
0"
b1101 #
b1101 '
b1101 >
#145
0)
0.
09
18
b1 4
17
b1110 !
b1110 5
06
1"
#150
0"
b1110 #
b1110 '
b1110 >
#155
1+
12
1*
10
1)
1.
b0 4
07
b1111 !
b1111 5
16
1"
#160
0"
b1111 #
b1111 '
b1111 >
#165
0+
0*
0)
02
00
0.
1=
0<
1;
0:
19
08
b1111 4
17
b0 !
b0 5
06
1"
#170
1+
11
1*
1/
1)
1-
1,
13
1(
0"
b0 #
b0 '
1$
0&
b0 ?
b10000 >
#175
0)
0*
0+
0-
0/
01
07
16
09
18
0;
1:
b0 4
0=
b1111 !
b1111 5
1<
1"
#180
0"
b1 #
b1 '
b1 ?
#185
1)
1-
b1 4
17
b1110 !
b1110 5
06
1"
#190
0"
b10 #
b10 '
b10 ?
#195
0)
0*
0-
0/
07
16
b10 4
19
b1101 !
b1101 5
08
1"
#200
0"
b11 #
b11 '
b11 ?
#205
1*
1/
1)
1-
b11 4
17
b1100 !
b1100 5
06
1"
#210
0"
b100 #
b100 '
b100 ?
#215
0)
0*
0+
0-
0/
01
07
16
09
18
b100 4
1;
b1011 !
b1011 5
0:
1"
#220
0"
b101 #
b101 '
b101 ?
#225
1)
1-
b101 4
17
b1010 !
b1010 5
06
1"
#230
0"
b110 #
b110 '
b110 ?
#235
0+
0)
01
0*
0-
0/
07
16
b110 4
19
b1001 !
b1001 5
08
1"
#240
0"
b111 #
b111 '
b111 ?
#245
1+
11
1*
1/
1)
1-
b111 4
17
b1000 !
b1000 5
06
1"
#250
0"
b1000 #
b1000 '
b1000 ?
#255
0)
0*
0+
0-
0/
01
07
16
09
18
0;
1:
b1000 4
1=
b111 !
b111 5
0<
1"
#260
0"
b1001 #
b1001 '
b1001 ?
#265
1)
1-
b1001 4
17
b110 !
b110 5
06
1"
#270
0"
b1010 #
b1010 '
b1010 ?
#275
0)
0*
0-
0/
07
16
b1010 4
19
b101 !
b101 5
08
1"
#280
0"
b1011 #
b1011 '
b1011 ?
#285
1*
1/
1)
1-
b1011 4
17
b100 !
b100 5
06
1"
#290
0"
b1100 #
b1100 '
b1100 ?
#295
0)
0*
0+
0-
0/
01
07
16
09
18
b1100 4
1;
b11 !
b11 5
0:
1"
#300
0"
b1101 #
b1101 '
b1101 ?
#305
1)
1-
b1101 4
17
b10 !
b10 5
06
1"
#310
0"
b1110 #
b1110 '
b1110 ?
#315
0+
0)
01
0*
0-
0/
07
16
b1110 4
19
b1 !
b1 5
08
1"
#320
0"
b1111 #
b1111 '
b1111 ?
#325
1+
11
1*
1/
1)
1-
b1111 4
17
b0 !
b0 5
06
1"
#330
0"
b10000 ?
